Poission Regression – 504
…
Missingness

Code

data_pos %>%
  dplyr::select(reliten, reliten_recode)

# A tibble: 2,044 × 2
   reliten reliten_recode     
     <dbl> <ord>              
 1       1 Extremely important
 2       4 Not very important 
 3       1 Extremely important
 4       1 Extremely important
 5       1 Extremely important
 6       4 Not very important 
 7       3 Somewhat important 
 8       1 Extremely important
 9       1 Extremely important
10       1 Extremely important
# ℹ 2,034 more rows
…
